"서비스구분","서비스ID","대분류명","소분류명","서비스상태","서비스명","결제방법","장소명","서비스대상","바로가기URL","장소X좌표","장소Y좌표","서비스개시시작일시","서비스개시종료일시","접수시작일시","접수종료일시","지역명"
"자체","S200120181023017963","시설대관","주민사랑방","접수중","영등포구 대림3동주민센터 2층 주민사랑방 대관","유료","대림3동주민센터","제한없음(서울시 관련 시민 - 상세정보확인)","http://yeyak.seoul.go.kr/reservation/view.web?rsvsvcid=S200120181023017963","37.498315052716244","126.89803617893842","2020-01-01 00:00:00.0","2020-12-31 00:00:00.0","2020-01-01 09:00:00.0","2020-12-31 18:00:00.0","영등포구"
"자체","S191222170255368722","시설대관","주민사랑방","접수중","영등포본동주민센터(동네사랑방)","무료","영등포본동주민센터 주민사랑방 ","제한없음","http://yeyak.seoul.go.kr/reservation/view.web?rsvsvcid=S191222170255368722","37.51466489115024","126.90933868307688","2020-01-01 00:00:00.0","2020-12-31 00:00:00.0","2020-01-01 09:00:00.0","2020-12-31 18:00:00.0","영등포구"
"자체","S200220164258217765","시설대관","다목적실","접수중","여의동주민센터 4층 다목적회의실","유료","여의동주민센터","제한없음","http://yeyak.seoul.go.kr/reservation/view.web?rsvsvcid=S200220164258217765","37.51769454294605","126.9346142466728","2020-01-02 00:00:00.0","2020-12-31 00:00:00.0","2020-01-02 09:00:00.0","2020-12-31 18:00:00.0","영등포구"
"자체","S200220195258123638","시설대관","기타","접수중","여의동주민센터 3층 카페홀","무료","여의동주민센터","제한없음(서울시 관련 시민 - 상세정보확인)","http://yeyak.seoul.go.kr/reservation/view.web?rsvsvcid=S200220195258123638","37.51769454294605","126.9346142466728","2020-01-02 00:00:00.0","2020-12-31 00:00:00.0","2020-01-02 09:00:00.0","2020-12-31 18:00:00.0","영등포구"
"자체","S200221130024340756","시설대관","다목적실","접수중","여의동주민센터 3층 다목적회의실(1)","유료","여의동주민센터","제한없음(서울시 관련 시민 - 상세정보확인)","http://yeyak.seoul.go.kr/reservation/view.web?rsvsvcid=S200221130024340756","37.51769454294605","126.9346142466728","2020-01-02 00:00:00.0","2020-12-31 00:00:00.0","2020-01-02 09:00:00.0","2020-12-31 18:00:00.0","영등포구"
"자체","S200221153847872991","시설대관","다목적실","접수중","여의동주민센터 3층 다목적회의실(2)","유료","여의동주민센터","제한없음","http://yeyak.seoul.go.kr/reservation/view.web?rsvsvcid=S200221153847872991","37.51769454294605","126.9346142466728","2020-01-02 00:00:00.0","2020-12-31 00:00:00.0","2020-01-02 09:00:00.0","2020-12-31 18:00:00.0","영등포구"
"자체","S200120174847206943","시설대관","회의실","접수중","영등포구 대림3동주민센터 다목적회의실 대관","유료","대림3동주민센터","제한없음(서울시 관련 시민 - 상세정보확인)","http://yeyak.seoul.go.kr/reservation/view.web?rsvsvcid=S200120174847206943","37.498315052716244","126.89803617893842","2020-01-01 00:00:00.0","2020-12-31 00:00:00.0","2020-01-01 09:00:00.0","2020-12-31 18:00:00.0","영등포구"
"자체","S200110151036335696","시설대관","회의실","접수중","영등포구 신길7동주민센터 소회의실 대관","유료","신길7동주민센터(소회의실)","제한없음(서울시 관련 시민 - 상세정보확인)","http://yeyak.seoul.go.kr/reservation/view.web?rsvsvcid=S200110151036335696","37.50639157717941","126.92151364232663","2020-01-01 00:00:00.0","2020-12-31 00:00:00.0","2020-01-01 09:00:00.0","2020-12-31 18:00:00.0","영등포구"
"자체","S190103171047487596","시설대관","녹화/촬영","접수중","여의도근린공원(촬영)","유료","여의도공원","제한없음","http://yeyak.seoul.go.kr/reservation/view.web?rsvsvcid=S190103171047487596","","","2020-01-01 00:00:00.0","2020-12-31 00:00:00.0","2020-01-01 00:00:00.0","2020-12-31 23:59:00.0","영등포구"
"자체","S191222171826064937","시설대관","회의실","접수중","영등포구 영등포본동주민센터 다목적회의실 대관","유료","영등포본동주민센터(다목적 회의실)","제한없음","http://yeyak.seoul.go.kr/reservation/view.web?rsvsvcid=S191222171826064937","37.51466489115024","126.90933868307688","2020-01-01 00:00:00.0","2020-12-31 00:00:00.0","2020-01-01 09:00:00.0","2020-12-31 18:00:00.0","영등포구"
"자체","S200110174640674986","시설대관","주민사랑방","접수중","영등포구 신길6동 주민사랑방","무료","신길6동주민센터(주민사랑방)","제한없음","http://yeyak.seoul.go.kr/reservation/view.web?rsvsvcid=S200110174640674986","37.49937342643411","126.90984571686363","2020-01-10 00:00:00.0","2020-12-31 00:00:00.0","2020-01-10 09:09:00.0","2020-12-31 18:00:00.0","영등포구"
"자체","S200110112635400649","시설대관","회의실","접수중","영등포구 신길7동주민센터 대회의실 대관","유료","신길7동주민센터(대회의실)","제한없음","http://yeyak.seoul.go.kr/reservation/view.web?rsvsvcid=S200110112635400649","37.50639157717941","126.92151364232663","2020-01-01 00:00:00.0","2020-12-31 00:00:00.0","2020-01-01 09:00:00.0","2020-12-31 18:00:00.0","영등포구"
"자체","S200110153309582204","시설대관","주민사랑방","접수중","영등포구 신길7동주민센터 주민대화실 대관","유료","신길7동주민센터","제한없음","http://yeyak.seoul.go.kr/reservation/view.web?rsvsvcid=S200110153309582204","37.50639157717941","126.92151364232663","2020-01-01 00:00:00.0","2020-12-31 00:00:00.0","2020-01-01 09:00:00.0","2020-12-31 18:00:00.0","영등포구"
"자체","S191220145315828919","시설대관","회의실","접수중","영등포구 양평동주민복지회관 다목적회의실 대관","유료","양평동 복지회관","제한없음(서울시 관련 시민 - 상세정보확인)","http://yeyak.seoul.go.kr/reservation/view.web?rsvsvcid=S191220145315828919","37.52687085026576","126.88743549626933","2019-12-26 00:00:00.0","2020-12-31 00:00:00.0","2019-12-26 09:00:00.0","2020-12-31 18:00:00.0","영등포구"
"자체","S200106140700652668","시설대관","다목적실","접수중","영등포구 문래동주민센터 문화교실 대관","유료","문래동주민센터(문화교실)","제한없음","http://yeyak.seoul.go.kr/reservation/view.web?rsvsvcid=S200106140700652668","37.51711128129531","126.89952183164593","2020-01-06 00:00:00.0","2020-12-31 00:00:00.0","2020-01-06 09:00:00.0","2020-12-31 18:00:00.0","영등포구"
"자체","S200110174103578606","시설대관","회의실","접수중","영등포구 신길6동주민센터 2층 회의실 대관","유료","신길6동주민센터(2층회의실)","제한없음","http://yeyak.seoul.go.kr/reservation/view.web?rsvsvcid=S200110174103578606","37.49937342643411","126.90984571686363","2020-01-10 00:00:00.0","2020-12-31 00:00:00.0","2020-01-10 00:00:00.0","2020-12-31 00:00:00.0","영등포구"
"자체","S191112185816857765","시설대관","녹화/촬영","예약일시중지","2020년 영화촬영1(주간)-양화","유료","양화한강공원","제한없음","http://yeyak.seoul.go.kr/reservation/view.web?rsvsvcid=S191112185816857765","37.53822596607873","126.90240365454291","2019-12-01 00:00:00.0","2020-12-31 00:00:00.0","2019-12-01 00:00:00.0","2020-12-31 00:00:00.0","영등포구"
"자체","S191112190117857366","시설대관","녹화/촬영","예약일시중지","2020년 영화촬영1(야간)-양화","유료","양화한강공원","제한없음","http://yeyak.seoul.go.kr/reservation/view.web?rsvsvcid=S191112190117857366","37.53822596607873","126.90240365454291","2019-12-01 00:00:00.0","2020-12-31 00:00:00.0","2019-12-01 00:00:00.0","2020-12-31 00:00:00.0","영등포구"
"자체","S191112190402228199","시설대관","녹화/촬영","예약일시중지","2020년 녹화1-양화","유료","양화한강공원","제한없음","http://yeyak.seoul.go.kr/reservation/view.web?rsvsvcid=S191112190402228199","37.53822596607873","126.90240365454291","2019-12-01 00:00:00.0","2020-12-31 00:00:00.0","2019-12-01 00:00:00.0","2020-12-31 00:00:00.0","영등포구"
"자체","S200103143736718928","시설대관","회의실","접수중","영등포구 대림2동주민센터 다목적회의실 대관","유료","대림2동주민센터","제한없음","http://yeyak.seoul.go.kr/reservation/view.web?rsvsvcid=S200103143736718928","37.49273981080715","126.89825182315903","2020-01-03 00:00:00.0","2020-12-31 00:00:00.0","2020-01-03 09:00:00.0","2020-12-31 18:00:00.0","영등포구"
"자체","S200103165516872180","시설대관","강의실","접수중","영등포구 대림2동주민센터 문화교실 대관","유료","대림2동주민센터","제한없음","http://yeyak.seoul.go.kr/reservation/view.web?rsvsvcid=S200103165516872180","37.49273981080715","126.89825182315903","2020-01-03 00:00:00.0","2020-12-31 00:00:00.0","2020-01-03 09:00:00.0","2020-12-31 18:00:00.0","영등포구"
"자체","S200103170123174482","시설대관","강의실","접수중","영등포구 대림2동주민센터 돌봄교실","유료","대림2동주민센터","제한없음(서울시 관련 시민 - 상세정보확인)","http://yeyak.seoul.go.kr/reservation/view.web?rsvsvcid=S200103170123174482","37.49273981080715","126.89825182315903","2020-01-03 00:00:00.0","2020-12-31 00:00:00.0","2020-01-03 09:00:00.0","2020-12-31 18:00:00.0","영등포구"
"자체","S200103170634730544","시설대관","기타","접수종료","영등포구 대림2동주민센터 주민열린공간","유료","대림2동주민센터","제한없음(서울시 관련 시민 - 상세정보확인)","http://yeyak.seoul.go.kr/reservation/view.web?rsvsvcid=S200103170634730544","37.49273981080715","126.89825182315903","2020-01-03 00:00:00.0","2020-12-31 00:00:00.0","2020-01-03 09:00:00.0","2020-01-03 18:00:00.0","영등포구"
"자체","S200110172517113198","시설대관","회의실","접수중","영등포구 신길6동주민센터 3층 다목적회의실 대관","유료","신길6동주민센터(다목적회의실)","제한없음","http://yeyak.seoul.go.kr/reservation/view.web?rsvsvcid=S200110172517113198","37.49937342643411","126.90984571686363","2020-01-10 00:00:00.0","2020-12-31 00:00:00.0","2020-01-10 10:00:00.0","2020-12-31 18:00:00.0","영등포구"
"자체","S191230172005583285","시설대관","주민사랑방","접수중","영등포구 양평2동주민센터 주민사랑방 대관","유료","양평2동주민센터(주민사랑방)","제한없음","http://yeyak.seoul.go.kr/reservation/view.web?rsvsvcid=S191230172005583285","37.537755524537275","126.89593228388375","2020-01-01 00:00:00.0","2020-12-31 00:00:00.0","2020-01-01 09:00:00.0","2020-12-31 18:00:00.0","영등포구"
"자체","S191231113253258480","시설대관","회의실","접수중","영등포구 양평2동주민센터 다목적회의실 대관","유료","양평2동주민센터(다목적회의실)","제한없음","http://yeyak.seoul.go.kr/reservation/view.web?rsvsvcid=S191231113253258480","37.537755524537275","126.89593228388375","2020-01-01 00:00:00.0","2020-12-31 00:00:00.0","2020-01-01 09:00:00.0","2020-12-31 18:00:00.0","영등포구"
"자체","S200101152833299353","시설대관","다목적실","접수중","영등포구 신길7동주민센터 다목적실 대관","유료","신길7동주민센터(다목적실)","제한없음","http://yeyak.seoul.go.kr/reservation/view.web?rsvsvcid=S200101152833299353","37.50639157717941","126.92151364232663","2020-01-01 00:00:00.0","2020-12-31 00:00:00.0","2020-01-01 09:00:00.0","2020-12-31 18:00:00.0","영등포구"
"자체","S200106141419959163","시설대관","다목적실","접수중","영등포구 문래동 목화마을활력소 누리방 대관","유료","문래동목화마을활력소(누리방)","제한없음","http://yeyak.seoul.go.kr/reservation/view.web?rsvsvcid=S200106141419959163","37.51409163161205","126.89193840544433","2020-01-06 00:00:00.0","2020-12-31 00:00:00.0","2020-01-06 09:00:00.0","2020-12-31 18:00:00.0","영등포구"
"자체","S191112191346620071","시설대관","녹화/촬영","예약일시중지","2020년 영화촬영1(주간)-여의도","유료","여의도한강공원","제한없음","http://yeyak.seoul.go.kr/reservation/view.web?rsvsvcid=S191112191346620071","37.52634720473693","126.93359758140862","2019-12-01 00:00:00.0","2020-12-31 00:00:00.0","2019-12-01 00:00:00.0","2020-12-31 00:00:00.0","영등포구"
"자체","S191112191653359822","시설대관","녹화/촬영","예약일시중지","2020년 영화촬영1(야간)-여의도","유료","여의도한강공원","제한없음","http://yeyak.seoul.go.kr/reservation/view.web?rsvsvcid=S191112191653359822","37.52634720473693","126.93359758140862","2019-12-01 00:00:00.0","2020-12-31 00:00:00.0","2019-12-01 00:00:00.0","2020-12-31 00:00:00.0","영등포구"
"자체","S191112192008345424","시설대관","녹화/촬영","예약일시중지","2020년 영화촬영2(주간)-여의도","유료","여의도한강공원","제한없음","http://yeyak.seoul.go.kr/reservation/view.web?rsvsvcid=S191112192008345424","37.52634720473693","126.93359758140862","2019-12-01 00:00:00.0","2020-12-31 00:00:00.0","2019-12-01 00:00:00.0","2020-12-31 00:00:00.0","영등포구"
"자체","S191112192334514391","시설대관","녹화/촬영","예약일시중지","2020년 녹화1-여의도","유료","여의도한강공원","제한없음","http://yeyak.seoul.go.kr/reservation/view.web?rsvsvcid=S191112192334514391","37.52634720473693","126.93359758140862","2019-12-01 00:00:00.0","2020-12-31 00:00:00.0","2019-12-01 00:00:00.0","2020-12-31 00:00:00.0","영등포구"
"자체","S191112192555241415","시설대관","녹화/촬영","예약일시중지","2020년 녹화2-여의도","유료","여의도한강공원","제한없음","http://yeyak.seoul.go.kr/reservation/view.web?rsvsvcid=S191112192555241415","37.52634720473693","126.93359758140862","2019-12-01 00:00:00.0","2020-12-31 00:00:00.0","2019-12-01 00:00:00.0","2020-12-31 00:00:00.0","영등포구"
"자체","S191112192933063790","시설대관","녹화/촬영","예약일시중지","2020년 녹화3-여의도","유료","여의도한강공원","제한없음","http://yeyak.seoul.go.kr/reservation/view.web?rsvsvcid=S191112192933063790","37.52634720473693","126.93359758140862","2019-12-01 00:00:00.0","2021-12-31 00:00:00.0","2019-12-01 00:00:00.0","2020-12-31 00:00:00.0","영등포구"
"자체","S191112193227287727","시설대관","녹화/촬영","예약일시중지","2020년 녹화4-여의도","유료","여의도한강공원","제한없음","http://yeyak.seoul.go.kr/reservation/view.web?rsvsvcid=S191112193227287727","37.52634720473693","126.93359758140862","2019-12-01 00:00:00.0","2020-12-31 00:00:00.0","2019-12-01 00:00:00.0","2020-12-31 00:00:00.0","영등포구"
"자체","S191223134602670388","시설대관","녹화/촬영","접수중","녹화-선유도공원","유료","선유도공원","제한없음","http://yeyak.seoul.go.kr/reservation/view.web?rsvsvcid=S191223134602670388","37.54238449558562","126.90181888777212","2020-01-01 00:00:00.0","2020-12-31 00:00:00.0","2019-12-31 09:00:00.0","2020-12-31 20:00:00.0","영등포구"
"자체","S200109143102374740","시설대관","강당","접수중","영등포구 당산2동주민센터 5층 대강당 대관","유료","당산2동주민센터","제한없음","http://yeyak.seoul.go.kr/reservation/view.web?rsvsvcid=S200109143102374740","37.531010072900905","126.8973490732001","2020-01-09 00:00:00.0","2020-12-31 00:00:00.0","2020-01-09 00:00:00.0","2020-12-31 00:00:00.0","영등포구"
"자체","S200109144149722731","시설대관","강의실","접수중","영등포구 당산2동주민센터 3층 회의실 대관","유료","당산2동주민센터","제한없음","http://yeyak.seoul.go.kr/reservation/view.web?rsvsvcid=S200109144149722731","37.531010072900905","126.8973490732001","2020-01-09 00:00:00.0","2020-12-31 00:00:00.0","2020-01-09 00:00:00.0","2020-12-31 00:00:00.0","영등포구"
"자체","S200109144540808579","시설대관","강의실","접수중","영등포구 당산2동주민센터 5층 프로그램실 대관","유료","당산2동주민센터","제한없음","http://yeyak.seoul.go.kr/reservation/view.web?rsvsvcid=S200109144540808579","37.531010072900905","126.8973490732001","2020-01-09 00:00:00.0","2020-12-31 00:00:00.0","2020-01-09 01:00:00.0","2020-12-31 00:00:00.0","영등포구"
"자체","S191220150150408124","시설대관","회의실","접수중","영등포구 양평1동주민센터 다목적회의실 대관","유료","양평1동주민센터(다목적회의실) ","제한없음","http://yeyak.seoul.go.kr/reservation/view.web?rsvsvcid=S191220150150408124","37.52364601615064","126.88822769325186","2019-12-20 00:00:00.0","2020-12-31 00:00:00.0","2019-12-20 09:00:00.0","2020-12-31 23:00:00.0","영등포구"
"자체","S191226080813803946","시설대관","다목적실","접수중","영등포구 문래동주민센터 다목적회의실 대관","유료","문래동주민센터(다목적회의실)","제한없음","http://yeyak.seoul.go.kr/reservation/view.web?rsvsvcid=S191226080813803946","37.51711128129531","126.89952183164593","2020-01-01 00:00:00.0","2020-12-31 00:00:00.0","2019-12-26 09:00:00.0","2020-12-31 18:00:00.0","영등포구"