"행사번호(키)","제목","행사신청시작일","행사신청종료일","행사종류","행사일시","행사장소","참여대상","신청방법","주최/주관","행사문의","상세정보 주소"
"1579673158555","2020년 찾아가는 폭력예방교육 지역지원기관 교육 시행","2020-01-23 09:00:00.0","2020-12-31 09:00:00.0","교육","폭력예방교육 신청일자","폭력예방교육 신청기관 내","폭력예방교육 비의무대상 일반시민 또는 기관 및 단체 등","온라인 신청","서울시여성가족재단","서울시여성가족재단 성주류화지원사업팀 폭력예방교육 담당 02-810-5040","http://www.seoulwomen.or.kr/c3/sub1_1.jsp?nowPage=0&pageType=1&regNo=1579673158555"
"1588748384369","우리동네키움센터 SNS 사진 업로드 공모 개최 안내","2020-05-04 09:00:00.0","2020-06-08 18:00:00.0","기타","2020.5.4.~6.8.","온라인","우리동네키움센터에 관심 있는 시민이라면 누구나","온라인","서울시여성가족재단","서울시여성가족재단 공적돌봄사업팀 홍보지원 담당 02-810-5470","http://www.seoulwomen.or.kr/c3/sub1_1.jsp?nowPage=0&pageType=1&regNo=1588748384369"
"1579745666686","2020 서울리더와 함께 하는 신년회","2020-01-23 14:00:00.0","2020-02-11 18:00:00.0","기타","2020년 2월 12알 (수) 14:30~16:30","서울시청 시민청 태평홀(지하 2층)","시의회 여성단체 여성기관 전문가 등","온라인 신청 및 전화 신청","서울시의회 보건복지위원회?서울시여성가족재단","성평등협력사업팀 02-810-5094 5087","http://www.seoulwomen.or.kr/c3/sub1_1.jsp?nowPage=0&pageType=1&regNo=1579745666686"
"1579756229279","2020 서울시 여성리더와 함께 하는 신년회","2020-01-23 14:30:00.0","2020-02-11 18:00:00.0","기타","2020년 2월 12일(수) 14:30~16:30","서울시청 시민청 태평홀(지하 2층)","시의회 여성단체 여성기관 전문가 등","온라인 신청 및 전화 신청","서울시의회 보건복지위원회&#8231;서울시여성가족재단","성평등협력사업팀 02-810-5094 5087","http://www.seoulwomen.or.kr/c3/sub1_1.jsp?nowPage=0&pageType=1&regNo=1579756229279"
"1566522956636","찾아가는 폭력예방교육 신청 안내","2019-08-23 00:00:00.0","2019-10-31 00:00:00.0","교육","2019.1.1.~2019.12.31.","희망하는 장소","일반인은 누구나","첨부 신청서 작성 후 이메일 신청(2016thesafe01@seoulwomen.or.kr)","서울시여성가족재단","서울시여성가족재단 02-810-5040","http://www.seoulwomen.or.kr/c3/sub1_1.jsp?nowPage=0&pageType=1&regNo=1566522956636"
"1571959633492","성평등 문화콘텐츠 페스티벌 '여성창작자대회'","2019-10-25 09:00:00.0","2019-11-14 09:00:00.0","문화예술","2019.11.14.(목) 17:00~20:00 19:00~21:30","서울여성플라자 2층 성평등도서관 여기","창작자 예비창작자 관심있는 시민 등","온라인 신청 및 현장 신청","서울시여성가족재단","서울시여성가족재단 성평등사업협력팀 02-810-5072","http://www.seoulwomen.or.kr/c3/sub1_1.jsp?nowPage=0&pageType=1&regNo=1571959633492"
"1571113993936","서울시 일?생활균형 박람회","2019-10-15 00:00:00.0","2019-10-31 00:00:00.0","박람회","2019. 11. 6.(수) 9:30~17:00","한국프레스센터","서울시민 및 일?생활균형 관계자","온라인 신청 및 당일 현장접수","서울특별시/서울시여성가족재단","서울시여성가족재단 가족팀","http://www.seoulwomen.or.kr/c3/sub1_1.jsp?nowPage=0&pageType=1&regNo=1571113993936"
"1571190906457","2020성평등 대학 만들기 워크숍<미투 이후 변하지 않는 대학에서 살아남기> 실전편","2019-10-16 11:00:00.0","2019-10-27 13:00:00.0","세미나","2019. 10. 27.(일) 14:00~19:00","서울여성플라자 2층 회의실","대학 내 페미니즘 활동에 관심 있는 재학생","온라인신청▶ https://forms.gle/KvHpymHLtjF5vo5L7","서울시여성가족재단 유니브페미","02-810-5092","http://www.seoulwomen.or.kr/c3/sub1_1.jsp?nowPage=0&pageType=1&regNo=1571190906457"