"일련번호","신청내용","신청일","전화여부","취소여부","최종확인여부"
"9","부모님이 한옥에 거주하시는데 여름때 부터 비가 많이 와 한쪽 천장에 비가 새고 있어 벽과 전창일부가 곰팡이가 피고 있어 일부를 살짝 뜯고 청소는 했지만 정확하게 어디게 비가 새고 있는지 확인하기 위해서 한옥 119 출동신청을 드립니다.","2017-08-28 00:00:00.0","Y","N","Y"
"18","안녕하세요! 한옥 미등록 상태이며 등록 후 수선 예정입니다. 한옥에 대한 지식이 없어 전문가분들께 자문을 받아보고자 합니다.   첫째. 현재 집의 상태 및 수선 절차를 알고 싶습니다. 둘째. 상태에 따른 수선의 방법과 규모 셋째. 수선을 맡아주실 협력 업체 정보 넷째. 일반적인 한옥 공사기간 및 공사비용   * 현제 육안으로 확인되는 상태는 크게 세가지 정도 입니다.    지붕: 전주인께서 일반 농가형 주택에 쓰는 철제         지붕으로 보수 하셨으나 안쪽에 원기와가         남아있다고 합니다.   기초: 전체적으로 집이 기울어져 있으며 외벽및 담장이         갈라져 거주가 불가능해 보입니다.   구조: 기둥과 보 상태가 좋아 보이지 않습니다.  전체적으로 복원가능한 상황인지 안전상의 문제는 없는지 궁금합니다. 그럼 연락 기다리고 있겠습니다. 감사합니다.","2018-04-27 00:00:00.0","Y","N","Y"
"43","부모님께서 40년 가까이 살고계신 한옥집입니다. 최근 마루 기둥의 뒤틀림 현상이 눈에 띄게 나타나고 있습니다. 보는 분들마다 위험해보인다고 말씀들을 하셔서 한번 상담을 받아보고 싶습니다.","2019-07-31 00:00:00.0","Y","N","Y"
"55","창호 및 지붕 보수. 전체적인 점검을 해보고 싶습니다.","2020-02-05 00:00:00.0","N","N","N"
"59","집 뒤쪽 1층 지붕 빗물동판 설치 잘못으로 인해 지난해 여름부터 빗물이 기와와 지붕부재 틈새로 스며들어 심하게 청이 끼었음. 빗물받이 공사는 다시 했으나 누수에 노출된 지붕부재 교체 필요함. 300만원 이내 소규모 수선 지원 요청함.","2020-03-17 00:00:00.0","Y","N","Y"
"41","지붕누수로 인한 벽지 곰팡이 및 처마 목재가 썩는 문제로 인해 도움을 청합니다.","2019-07-06 00:00:00.0","N","Y","Y"
"64","오랫동안 방치된 1층짜리 한옥 주택을 개보수하고자 하여 상담 요청 드립니다.  한옥보존지구로 지정된 부지라 전통 한옥 밖에 건축 못한다고 하는데 구체적인 견적이나 예상 소요기간 등을 직접 답사 후 상담해주시면 감사하겠습니다.","2020-04-27 00:00:00.0","Y","N","Y"
"66","현재 40년정도 된 한옥으로 노후가 많이되어  외관 개보수공사를 진행하고자 합니다.  그와 관련된 지원사업의 규모와 절차 등  세부적인 내용을 상담받고 지원하고자 합니다.","2020-05-06 00:00:00.0","Y","N","Y"
"14","지붕 밑 서까래가 ?어서 주저 앉았는데 어떻게 수리해야 될지 모르겠어요^^; 도움을 주셨으면 좋겠습니다.","2017-11-13 00:00:00.0","Y","N","Y"
"15","1. 기와 부분 수리    - 비가 오면 부억 천장에서 물이 샘   2. 여닫이 문 틀 수리    - 개미가 나무를 갉아먹어 밑에부분이 썩었음","2018-02-27 00:00:00.0","Y","N","Y"
"22","안녕하세요. 겨울에 이사와서 첫 장마를 보내는 중입니다. 집안 벽면 곳곳에 비가 스며들어 축축한데 혹시 이것도 봐주실 수 있나요?ㅜㅜ 부탁드립니다.","2018-07-03 00:00:00.0","Y","N","Y"
"12","한옥 철거 및 보수에 대해 상담 받고 싶습니다. 감사합니다.","2017-09-28 00:00:00.0","Y","N","Y"
"44","부모님께서 40년 가까이 살고계신 한옥집입니다. 최근 마루 기둥의 뒤틀림 현상이 눈에 띄게 나타나고 있습니다. 보는 분들마다 위험해보인다고 말씀들을 하셔서 한번 상담을 받아보고 싶습니다.","2019-07-31 00:00:00.0","N","Y","N"
"39","지붕기와보수문의 요청 지붕에서 우천시 비가 새는문제. 기와가 내려앉는 안전상의 문제입니다.","2019-04-23 00:00:00.0","Y","N","Y"
"63","test","2020-04-27 00:00:00.0","N","N","N"
"65","은평 한옥 마을 건축주 공사로 담장 기와 시공 하려하는데 와공 기술자 찾기가 힘듭니다 지원센터에 한옥 기와 시공가능한 기술자 풀 공유 부탁 하려고 합니다","2020-04-30 00:00:00.0","Y","N","Y"
"23","세입자가 현재 12월 셋째주에 나갈 예정이며 10년이상을 살면서 보수가 일부 제대로 이루어지지 않은 부분들이 있습니다.  11월에 부분적으로 지분수선을 한 상황이지만  미비한 부분이 많은 것으로 판단되어집니다.  지붕공사전에 이런 정보를 알았다면 좋았을 텐데 많이 아쉽네요.   요점은  세입자가 나간 이후 지붕 및 전체 구조에 대한 진단을 받고  싶습니다.  진단 이후에는 수선을 할 예정입니다.  방문 일정은 세입자가 나간 후로 잡으면 좋을 것 같습니다.  날 추워지는데 감기조심하십시오.","2018-12-20 00:00:00.0","Y","N","Y"
"11","우선적으로 지붕기와가 끼진것이 있어 보수를 해야 할듯 한데 저문가분이 오셔서 한번 봐 주시면 좋을듯 합니다. 또한 집 내부를 전체적으로 보수를 해보려고 하는데 어떤 절차를 받아 해야 되는지요?...","2017-09-21 00:00:00.0","Y","N","Y"
"13","여름 장마철부터 지붕에 비가 새고 그 부분의 서까래가 거무튀튀하게 변색되기 시작하네요. 지붕에 비가 새지 않도록 보수를 해야 할 것 같습니다.","2017-09-28 00:00:00.0","Y","N","Y"
"17","1.지붕 부분적 보수(부식과 물이샘) 2.내부 미닫이 문(부식으로 부분적 부서짐) 3.벽 일부 보수(물이샘) 3.흰개미 관련","2018-04-04 00:00:00.0","Y","N","Y"
"20","한옥 주택을 부동산매매계약을 통해서 이번달 6월29일에 소유권을 넘겨 받을 예정으로 기다리고 있는 중입니다.  너무도 낡은 오래된 한옥집이기에 수선하기전에 도움을 받고 싶습니다.","2018-06-04 00:00:00.0","N","N","Y"
"47","한옥지붕이 기와가 많이 망가져서 물이 세고있습니다 그리고 지붕에있는 나무가 비로이해 많이 부식되서 가라앉을 위험이있어 확인및수리를 부탁드립니다","2019-08-23 00:00:00.0","N","N","Y"
"67","안녕하세요?    다름이 아니라 저희 집(등록 한옥임) 지붕의 기와가 새로 수리한지 13년 정도가 경과하면서 전반적으로 제 위치에 있지 않거나 깨어진 곳도 있는 등 군데군데 많이 어긋나 기와밑 흙이 보이는 등 상태가 점점 늘어나면서 혹시라도 큰 비가 오거나 강한 바람이 불면 재해에 대한 우려가 있어 이렇게 문의드립니다.  개인적으로 한옥지원센터를 처음 이용하여 정확한 절차와 내용 등을 을 잘 모릅니다만 동록 한옥의 경우 연간 일정금액 이내에서 요건에 맞는 수리 및 보수 등에 대해서는 어느정도 지원을 받을 수 있는 것으로 들었습니다.  혹시 저의 경우 이에 해당하는지 모르겠지만 적절한 안내를 부탁드립니다.  항상 한옥 보전 등에 여러 도움을 주고 계신데 대해 감사의 말씀 드립니다.  고맙습니다..","2020-05-04 00:00:00.0","Y","N","Y"
"40","지붕누수로 인한 목재가 썩고 있습니다. 도움을 요청 드립니다!","2019-07-01 00:00:00.0","Y","N","Y"
"58","현재 해당 필지와 인접한 필지(누상동 159-18번지)를 합한 두 필지에 한옥 신축을 고려하고 있습니다. 신축과 관련하여 설계 건축에 대한 전반적인 상담을 받고 싶습니다.","2020-03-17 00:00:00.0","Y","N","Y"
"60","1933년에 지어진 한옥입니다. 1. 지붕 누수(장마 전 수리 희망) 2. 담장 수리(금이 가고 많이 기울어진 상태. 3. 집 기울기에 대한 전문가 분의 의견을 듣고 싶습니다.","2020-03-14 00:00:00.0","Y","N","Y"
"34","지붕위 물이 샘. 방안쪽에도 스미고 외부로도 스밈.","2019-02-19 00:00:00.0","Y","N","Y"
"45","도시환경정비사업구역입니다. 하지만 사업이 진행되지 않아 10여년동안 추진위단계에서 멈춰있습니다.  지난주 폭우로 인해 노후지붕에서 샌 비가 방안 내부 벽에도 피해가 생기게 됫습니다. 혹시 내년 3월초 정비구역 일몰제로 구역지정해제 전이라도 한옥119에서 출동하여 수리가능 여부 검토 등의 서비스를 받을 수 있는지 궁금합니다.","2019-08-01 00:00:00.0","Y","N","Y"
"38","5년 전에 리모델링했다는 집을 구매했습니다.  그런데 재수선을 하려 집을 다시 뜯어보니 원래 집의 형태가 한옥이었습니다.  이미 훼손이 많이 된 상태지만 원래 모습을 최대한 살리고 싶어졌습니다.  조언을 받을 곳이 마땅치 않아 인터넷을 검색하던 중 한옥 119를 알게돼 출동신청을 합니다.  - 집 두채를 하나로 합친 형태입니다.  - 첫번째 집은 한옥으로 방2칸+부엌1칸 구조입니다.  - 두번째 집은 더 많이 훼손돼 아직 정확히 확인이 안되나 적산가옥이 아닐까 싶습니다.   그럼 전문가분들의 방문과 조언 부탁드리겠습니다.","2019-04-20 00:00:00.0","Y","N","Y"
"46","아버지 어머니 한옥집이 너무 오래되어서 비가오면 지붕이 세고 나무가 썩어서 지붕 수리 지원 신청견적 요청합니다. 담벼락 도 너무 오래되어서 같이 견적 내주시면 좋을것 같습니다.  한옥 등록은 되어있습니다. 빠른 시일안에 부탁드리겠습니다.","2019-08-21 00:00:00.0","Y","N","Y"
"68","1. 귀 귀관의 무한한 발전을 바랍니다. 2. 서울 한옥수선지원금을 통해 83년도에 지어진 본 한옥을 전면수선하고 싶습니다. 벽체에 곰팡이가 피고 있으며 바닥 높이가 불균일하고 일부 바닥체가 파손되어 생활이 불편하며 일부 누수의 흔적이 있으며 서까래 보 등 많은 부분에 문제가 있어 꼼꼼한 점검 후 편리하고 쾌적한 현대한옥으로 탈바꿈할 수 있기를 바랍니다.","2020-05-08 00:00:00.0","Y","N","Y"
"35","한옥 구조진단관련하여 방문 상담 요청 드립니다. 감사합니다.","2019-03-04 00:00:00.0","Y","N","Y"
"5","안녕하세요. 성수동 거주하는사람입니다.  현재 제가 거주하는 집은 한옥으로 지어진지 너무 오랜 시간이 지나 낡을대로 낡은 상태입니다. 또한 주변의 공사로 인하여 벽이 갈라지고 비가 많이올때면 비가 샙니다 또한 요즘은 개미가 나오는 시기여서 집의 대부분인 나무가 안전한 상태인지 궁금합니다. 정확한 진단 부탁드립니다.","2017-04-27 00:00:00.0","Y","N","Y"
"62","흰개미 관련 진단을 받고자 합니다.","2020-04-20 00:00:00.0","Y","N","Y"
"52","한옥 신축 문의","2019-10-29 00:00:00.0","Y","N","Y"
"10","지붕이 누수가 되어 비가 셉니다","2017-08-30 00:00:00.0","Y","N","Y"
"54","1. 기와가 매우 노후하여 방에 비가 새고 일부는 무너지고 있어 매우 위험합니다.  2. 상당히 오래된 주택으로 전반적으로 노후화되어 있습니다.","2019-11-13 00:00:00.0","Y","N","Y"
"8","성북동에 위치한 작은 한옥을 구입할 예정입니다. 현재 계약까지 하였고 다음달에 잔금을 치를 예정입니다. 그 이후 바로 리모델링하여 사용하려고 합니다. 현재 사려고 하는 집이 서울시에 등록된 한옥이며 리모델링 할 시에도 한옥으로 하고 싶습니다. 집은 ㄷ자로 생겼고 그 중에 한 부분은 디저트 샵으로 용도를 변경하여 사용을 하려고 합니다. 한옥으로 리모델링을 하는 것에 대해 조언을 얻고자 신청합니다.","2017-08-22 00:00:00.0","Y","N","Y"
"19","저는 인천진산과학고에 재학중인 이호성입니다. 한옥에 관심이 있어 삼화토에 대한 연구를 진행중입니다. 삼화토를 바른 실제 한옥 벽을 작게나마 구하고 싶은데 도움를 주실수 없는지 하고 신청해봅니다. 한옥의 벽을 작게 떼에낼 수 있다면 또는 작게 만들어 받아볼 수 있는 방법을 가르쳐줄 수 있을까요?","2018-05-04 00:00:00.0","N","N","N"
"21","한옥 주택을 부동산매매계약을 통해서 이번달 6월29일에 소유권을 넘겨 받을 예정으로 기다리고 있는 중입니다.  너무도 낡은 오래된 한옥집이기에 수선하기전에 도움을 받고 싶습니다.","2018-06-04 00:00:00.0","N","N","Y"
"50","전체적으로 나무 칠 및 관리가 필요한 시점이 온 것 같아서 상담 받고 싶습니다. 감사합니다.","2019-10-24 00:00:00.0","Y","N","Y"
"56","천장철거 및 서까래 보수공사 미서기뮨 보수","2020-02-26 00:00:00.0","Y","N","Y"
"57","한옥등옥제에 등록하고 싶습니다 오래된 구옥이라 실거주가 점점 어려워 지고 있습니다 혹 서울시 한옥등록제 등록이 가능한지 등록후 수리비 지원을 받을수 있는지 궁금합니다","2020-03-02 00:00:00.0","Y","N","Y"
"33","1. 천장에서 물떨어지는 소리 2. 대문 입구쯤에서 비가 오면 물이 샘. 물이 새기 시작한건 지난 여름부터입니다.","2019-02-08 00:00:00.0","Y","N","Y"
"42","지붕누수로 인한 벽지 곰팡이 및 처마 목재가 썩는 문제로 인해 도움을 청합니다.","2019-07-06 00:00:00.0","Y","N","Y"
"48","개보수 지원 문의","2019-09-10 00:00:00.0","Y","N","Y"
"53","1. 기와가 매우 노후하여 비가 새고 일부 무너진 곳이 있습니다. 2. 매우 오래된 가옥이라 전반적으로 노후화되어 있습니다.","2019-11-04 00:00:00.0","Y","Y","Y"
"61","내부 기둥 끝에 개미가 파먹은듯 파여져 있어서  걱정이 많습니다 .  어디에 문의를 해야하나 고민하면서 검색하다가 우연히 싸이트를 발견하였습니다 .  현재 계속 공간은 완전히 비어 있는 상태입니다 .  도움과 답변다리겠습니다 .  감사합니다 .","2020-03-25 00:00:00.0","Y","N","Y"
"51","한옥 신축 문의","2019-10-29 00:00:00.0","Y","N","Y"
"49","안방 보조 기둥이 벌레가 파먹어 방문이 열리지 않읍니다. 현장 방문하여 보수 할 수 있도록 안내 바랍니다.","2019-09-26 00:00:00.0","N","N","Y"
"36","구조진단관련하여 방문상담 요청드립니다. 감사합니다.","2019-03-04 00:00:00.0","Y","N","Y"
"24","부분 수선 상담","2018-12-17 00:00:00.0","Y","N","Y"
"37","이런 기회를 주셔서 감사합니다.  저희 집은 건축된지 30년이상 지난 단층 한옥 주택으로서 기와의 마모가 심하여 천정 누수가 심각한 상태입니다. 부디 채택되어 한옥 주택의 주거환경이 개선될 수 있기를 진심으로 기원합니다.  감사합니다.","2019-04-17 00:00:00.0","Y","N","Y"